<svg width="10" height="13" viewBox="0 0 10 13" fill="none" xmlns="http://www.w3.org/2000/svg">
<path fill-rule="evenodd" clip-rule="evenodd" d="M0.555556 3H9.44445C9.75124 3 10 3.29402 10 3.65671V11.0299C10 12.118 9.2538 13 8.33335 13H1.66666C0.746189 13 0 12.118 0 11.0299V3.65671C0 3.29402 0.248729 3 0.555556 3ZM9 4H1V11.0299C1 11.3666 1.32588 11.9941 1.60218 12.032L1.66697 12.0437H8.33362C8.64041 12.0437 9 11.456 9 11.0933V4Z" fill="currentColor"/>
<path d="M6.18015 0C6.56769 0 6.91758 0.198706 7.08245 0.505726L7.11489 0.573143L7.34453 1.11111H9.5C9.75645 1.11111 9.96774 1.28268 9.99661 1.50373L10 1.55556C10 1.78349 9.80699 1.97134 9.55829 1.99701L9.5 2H7.00002C6.81312 2 6.64377 1.90762 6.558 1.76338L6.53258 1.71343L6.18015 0.88889H3.81988L3.46739 1.71343C3.40101 1.8687 3.2437 1.97661 3.06155 1.99664L3 2H0.5C0.223858 2 0 1.80102 0 1.55556C0 1.32763 0.19302 1.13978 0.44169 1.1141L0.5 1.11111H2.655L2.8851 0.573143C3.02277 0.251108 3.35603 0.0309338 3.73747 0.00300848L3.81988 0H6.18015Z" fill="currentColor"/>
</svg>
