<svg width="21" height="22" viewBox="0 0 21 22" fill="none" xmlns="http://www.w3.org/2000/svg">
<path d="M10.1481 15.5C12.6334 15.5 14.6481 13.4853 14.6481 11C14.6481 8.51472 12.6334 6.5 10.1481 6.5C7.66279 6.5 5.64807 8.51472 5.64807 11C5.64807 13.4853 7.66279 15.5 10.1481 15.5Z" stroke="currentColor" stroke-width="1.5" stroke-linecap="round" stroke-linejoin="round"/>
<path d="M9.66729 3.13952L7.89827 1.81315C7.80336 1.74175 7.69283 1.69393 7.57581 1.67363C7.45878 1.65332 7.33861 1.66112 7.22519 1.69638C6.67731 1.86794 6.14576 2.08787 5.63682 2.35355C5.53147 2.40881 5.44077 2.48834 5.3722 2.58556C5.30364 2.68278 5.25918 2.79492 5.2425 2.91271L4.92977 5.10186C4.81057 5.20753 4.69387 5.31742 4.57967 5.43156C4.4655 5.54573 4.35558 5.66246 4.24989 5.78176L2.06108 6.09479C1.94348 6.11142 1.83151 6.15576 1.7344 6.22415C1.6373 6.29254 1.55784 6.38303 1.50257 6.48816C1.23647 6.99689 1.01612 7.52826 0.844113 8.076C0.808692 8.18957 0.800789 8.30994 0.821055 8.42717C0.841321 8.5444 0.889175 8.65513 0.960669 8.75022L2.2875 10.5193C2.27793 10.6783 2.27312 10.8385 2.27307 11C2.27307 11.1614 2.27788 11.3217 2.28751 11.4808L0.961132 13.2499C0.889731 13.3448 0.841908 13.4553 0.821605 13.5723C0.801302 13.6894 0.809099 13.8095 0.844355 13.923C1.01592 14.4708 1.23585 15.0024 1.50153 15.5113C1.55679 15.6167 1.63632 15.7074 1.73354 15.776C1.83076 15.8445 1.9429 15.889 2.06069 15.9057L4.24984 16.2184C4.3555 16.3376 4.4654 16.4543 4.57954 16.5685C4.6937 16.6827 4.81043 16.7926 4.92973 16.8983L5.24277 19.0871C5.2594 19.2047 5.30373 19.3167 5.37213 19.4138C5.44052 19.5109 5.53101 19.5903 5.63614 19.6456C6.14486 19.9117 6.67623 20.132 7.22397 20.304C7.33755 20.3395 7.45791 20.3474 7.57514 20.3271C7.69237 20.3068 7.8031 20.259 7.89819 20.1875L9.66728 18.8607C9.82629 18.8702 9.98652 18.875 10.148 18.8751C10.3094 18.8751 10.4697 18.8703 10.6288 18.8607L12.3979 20.187C12.4928 20.2584 12.6033 20.3063 12.7203 20.3266C12.8374 20.3469 12.9575 20.3391 13.0709 20.3038C13.6188 20.1322 14.1504 19.9123 14.6593 19.6466C14.7647 19.5914 14.8554 19.5118 14.9239 19.4146C14.9925 19.3174 15.037 19.2053 15.0536 19.0875L15.3664 16.8983C15.4856 16.7927 15.6023 16.6828 15.7165 16.5686C15.8306 16.4545 15.9406 16.3377 16.0462 16.2184L18.2351 15.9054C18.3527 15.8888 18.4646 15.8444 18.5617 15.776C18.6588 15.7076 18.7383 15.6172 18.7936 15.512C19.0597 15.0033 19.28 14.4719 19.452 13.9242C19.4874 13.8106 19.4953 13.6902 19.4751 13.573C19.4548 13.4558 19.407 13.3451 19.3355 13.25L18.0086 11.4809C18.0182 11.3219 18.023 11.1616 18.0231 11.0002C18.0231 10.8387 18.0183 10.6785 18.0086 10.5194L19.335 8.75029C19.4064 8.65538 19.4542 8.54485 19.4745 8.42783C19.4948 8.3108 19.487 8.19063 19.4518 8.07721C19.2802 7.52933 19.0603 6.99778 18.7946 6.48884C18.7393 6.38349 18.6598 6.29279 18.5626 6.22422C18.4654 6.15566 18.3532 6.1112 18.2354 6.09452L16.0463 5.78179C15.9406 5.66259 15.8307 5.54589 15.7166 5.43169C15.6024 5.31752 15.4857 5.2076 15.3664 5.10191L15.0534 2.9131C15.0367 2.7955 14.9924 2.68353 14.924 2.58642C14.8556 2.48932 14.7651 2.40986 14.66 2.35459C14.1513 2.08849 13.6199 1.86814 13.0722 1.69613C12.9586 1.66071 12.8382 1.65281 12.721 1.67307C12.6038 1.69334 12.493 1.7412 12.3979 1.81269L10.6289 3.13952C10.4698 3.12995 10.3096 3.12514 10.1482 3.12509C9.98671 3.12509 9.82638 3.12989 9.66729 3.13952Z" stroke="currentColor" stroke-width="1.5" stroke-linecap="round" stroke-linejoin="round"/>
</svg>
