<svg width="26" height="22" viewBox="0 0 26 22" fill="none" xmlns="http://www.w3.org/2000/svg">
    <path d="M0.892989 14.6296C0.426504 14.5657 0.069942 14.0811 0.165645 13.6157C0.228536 13.21 0.609708 12.8857 1.02096 12.8917C1.51205 12.8961 2.0108 12.8589 2.49424 12.9677C2.96674 13.0694 3.41463 13.2821 3.79416 13.5813C4.01729 13.7579 4.21197 13.9668 4.41104 14.1692C6.03744 15.824 7.65565 17.4865 9.29627 19.1266C9.73705 19.569 10.3403 19.8818 10.9752 19.8698C11.3957 19.8589 11.854 19.6926 12.0689 19.3071C12.2417 19.0391 12.2111 18.6907 12.4031 18.4332C12.5846 18.1767 12.9106 18.0394 13.2212 18.0777C13.6084 18.11 14.0442 18.1346 14.3724 17.889C14.6436 17.6582 14.8039 17.3197 14.8924 16.9801C14.963 16.7313 14.9285 16.4529 15.0696 16.2265C15.249 15.9061 15.6455 15.7272 16.0042 15.8109C16.4335 15.9006 16.9142 15.8628 17.2817 15.6075C17.6296 15.3335 17.7346 14.8757 17.8335 14.4667C17.9112 14.1232 18.2202 13.8476 18.5707 13.8115C18.8152 13.788 19.0678 13.7918 19.2981 13.6961C19.5639 13.5993 19.7793 13.3861 19.8838 13.1241C20.0429 12.7544 19.9806 12.3235 19.7913 11.9778C19.612 11.641 19.3199 11.3883 19.0662 11.1105C17.9374 9.89972 16.8377 8.66379 15.7297 7.43441C13.9103 8.02449 12.017 8.44011 10.0985 8.47238C9.52869 8.48168 8.95283 8.42808 8.40486 8.26511C7.60369 8.01793 6.97752 7.31574 6.78502 6.50472C6.58924 5.71066 6.82385 4.82472 7.38768 4.23246C7.68135 3.90871 8.07783 3.70746 8.48252 3.55816C5.99424 3.55488 3.50541 3.5598 1.01768 3.55543C0.554473 3.56363 0.142129 3.14582 0.154161 2.68371C0.141036 2.21941 0.553926 1.80105 1.01822 1.80871C4.70252 1.80488 8.38682 1.80707 12.0706 1.80816C12.1914 1.82129 12.2893 1.7409 12.3888 1.68621C12.8493 1.41715 13.3131 1.15246 13.7746 0.884491C14.6961 0.380272 15.8112 0.239725 16.8278 0.507147C17.1292 0.58371 17.4152 0.706757 17.7034 0.821053C18.8764 1.29027 20.0495 1.75949 21.2231 2.22871C21.4921 2.34082 21.7836 2.39332 22.0746 2.38949C22.9687 2.38894 23.8623 2.39113 24.7564 2.38949C24.967 2.38675 25.1901 2.38621 25.3793 2.49394C25.7397 2.6766 25.9289 3.12886 25.807 3.51441C25.7058 3.87426 25.352 4.14168 24.9779 4.13894C24.1756 4.14223 23.3734 4.1384 22.5717 4.13949C22.1544 4.1373 21.7328 4.15754 21.3215 4.07441C20.8567 3.99511 20.4296 3.79004 19.9937 3.6216C18.9907 3.22019 17.9878 2.81988 16.9848 2.41847C16.7037 2.30527 16.4199 2.1855 16.1169 2.14558C15.5853 2.06793 15.033 2.18277 14.5671 2.44637C13.7013 2.9473 12.8356 3.44769 11.9694 3.94754C11.8174 4.03668 11.667 4.12965 11.5046 4.19855C10.6175 4.56824 9.72776 4.93246 8.84182 5.30652C8.31682 5.51433 8.34525 6.39754 8.87572 6.578C9.49041 6.77215 10.1472 6.73113 10.7816 6.68519C12.4753 6.53097 14.1328 6.11152 15.7532 5.60785C16.0693 5.50722 16.4319 5.60785 16.6545 5.8523C18.0173 7.35457 19.3631 8.87324 20.7544 10.3493C21.3149 10.9557 21.6874 11.752 21.718 12.5832C21.7388 13.2083 21.5714 13.8613 21.1564 14.3414C20.7014 14.8801 20.0347 15.1896 19.3604 15.3521C19.1482 15.9739 18.7764 16.5426 18.2721 16.9659C18.8666 16.9664 19.4605 16.9675 20.0549 16.9528C20.4503 16.9424 20.8512 16.8729 21.2061 16.6914C21.4905 16.5525 21.7355 16.349 21.9772 16.1472C22.4836 15.725 23.0934 15.4237 23.7409 15.2925C24.1636 15.2061 24.5978 15.2186 25.0277 15.2268C25.4652 15.2438 25.8409 15.6381 25.8425 16.075C25.8638 16.5076 25.5149 16.9172 25.0846 16.9632C24.7395 16.9943 24.3873 16.9391 24.0466 17.0173C23.6441 17.0999 23.2831 17.317 22.9791 17.5877C22.1998 18.2593 21.1941 18.6612 20.1649 18.6984C18.7643 18.7438 17.3621 18.7164 15.961 18.7028C15.4049 19.3437 14.5813 19.7249 13.7396 19.7883C13.4126 20.5047 12.8285 21.1123 12.0913 21.406C11.2623 21.7379 10.3107 21.669 9.49479 21.3305C8.92166 21.0953 8.40815 20.7273 7.97776 20.2832C6.2644 18.5677 4.57401 16.8303 2.87377 15.1011C2.64518 14.8615 2.33674 14.6958 2.00588 14.6553C1.63619 14.6165 1.26322 14.6625 0.892989 14.6296Z" fill="#404040"/>
</svg>
