<svg width="12" height="12" viewBox="0 0 12 12" fill="none" xmlns="http://www.w3.org/2000/svg">
<path d="M10.8125 2.65625L1.1875 2.65625" stroke="currentColor" stroke-width="0.875" stroke-linecap="round" stroke-linejoin="round"/>
<path d="M4.6875 5.28125V8.78125" stroke="currentColor" stroke-width="0.875" stroke-linecap="round" stroke-linejoin="round"/>
<path d="M7.3125 5.28125V8.78125" stroke="currentColor" stroke-width="0.875" stroke-linecap="round" stroke-linejoin="round"/>
<path d="M9.9375 2.65625V10.9688C9.9375 11.0848 9.89141 11.1961 9.80936 11.2781C9.72731 11.3602 9.61603 11.4062 9.5 11.4062H2.5C2.38397 11.4062 2.27269 11.3602 2.19064 11.2781C2.10859 11.1961 2.0625 11.0848 2.0625 10.9688V2.65625" stroke="currentColor" stroke-width="0.875" stroke-linecap="round" stroke-linejoin="round"/>
<path d="M8.1875 2.65625V1.78125C8.1875 1.54919 8.09531 1.32663 7.93122 1.16253C7.76712 0.998437 7.54456 0.90625 7.3125 0.90625H4.6875C4.45544 0.90625 4.23288 0.998437 4.06878 1.16253C3.90469 1.32663 3.8125 1.54919 3.8125 1.78125V2.65625" stroke="currentColor" stroke-width="0.875" stroke-linecap="round" stroke-linejoin="round"/>
</svg>
